%YAML 1.1
%TAG !u! tag:unity3d.com,2011:
--- !u!1045 &1
EditorBuildSettings:
  m_ObjectHideFlags: 0
  serializedVersion: 2
  m_Scenes:
  - enabled: 1
    path: Assets/ARGO/Scenes/DemoLauncher.unity
    guid: 4dcd43f53c599f94a80fb2408d9a15ff
  - enabled: 1
    path: Assets/ARGO/Scenes/BasicScene.unity
    guid: b88b5a2198bc642e88004ab3271d404b
  - enabled: 1
    path: Assets/ARGO/Scenes/EditScene.unity
    guid: 19a9ec00779f943b1b8789374e26cda5
  - enabled: 1
    path: Assets/ARGO/Scenes/ScanScene.unity
    guid: 215a1784376860644a66e82f3d383b85
  m_configObjects:
    UnityEditor.XR.ARCore.ARCoreSettings: {fileID: 11400000, guid: 1b0c202f8a719457b872c1f0dffbf284,
      type: 2}
    UnityEditor.XR.ARKit.ARKitSettings: {fileID: 11400000, guid: f4de8e15a17504c5d9828fbefa427e13,
      type: 2}
    com.unity.xr.management.loader_settings: {fileID: 11400000, guid: 7df0b96c1aa1aad4d8170be2bd301ee3,
      type: 2}
